a.n.other;A125671A34;male;Madrid;product_buy;015110_010;2019.08.01 15:02;Android 9.0;mobile;adidas All Day
a.n.other;A125671A34;male;Madrid;product_buy;015110_010;2019.08.01 15:02;Android 9.0;mobile;adidas All Day
a.n.other;A125671A34;male;Madrid;product_buy;015110_010;2019.08.01 15:02;Android 9.0;mobile;adidas All Day
